src/hpack/uhpackimp.pp=namespaced/FpWeb.UhpackImp.pp
{s*:src/hpack/}=namespaced/
{i+:src/hpack/}
src/hpack/uhpacktables.pp=namespaced/FpWeb.UhpackTables.pp
src/hpack/uhpack.pp=namespaced/FpWeb.Uhpack.pp
src/base/custfcgi.pp=namespaced/FpWeb.HostApp.Custom.Fcgi.pp
{s*:src/base/}=namespaced/
{i+:src/base/}
src/base/fpwebclient.pp=namespaced/FpWeb.Client.pp
src/base/fcgigate.pp=namespaced/FpWeb.FcgiGate.pp
src/base/custapache.pp=namespaced/FpWeb.HostApp.Custom.Apache.pp
src/base/fphttpsys.pp=namespaced/FpWeb.HostApp.HttpSys.pp
src/base/fpweb.pp=namespaced/FpWeb.Base.pp
src/base/microhttpapp.pp=namespaced/FpWeb.HostApp.MicroHttpApp.pp
src/base/webutil.pp=namespaced/FpWeb.Utils.pp
src/base/custhttpapp.pp=namespaced/FpWeb.HostApp.Custom.HttpApp.pp
src/base/ezcgi.pp=namespaced/FpWeb.HostApp.EzCgi.pp
src/base/fpmimetypes.pp=namespaced/FpWeb.MimeTypes.pp
src/base/iniwebsession.pp=namespaced/FpWeb.Session.Ini.pp
src/base/httpprotocol.pp=namespaced/FpWeb.Http.Protocol.pp
src/base/custapache24.pp=namespaced/FpWeb.HostApp.Custom.Apache24.pp
src/base/custmicrohttpapp.pp=namespaced/FpWeb.HostApp.Custom.MicroHttpApp.pp
src/base/fpcgi.pp=namespaced/FpWeb.HostApp.Cgi.pp
src/base/fpdatasetform.pp=namespaced/FpWeb.DatasetForm.pp
src/base/fpwebproxy.pp=namespaced/FpWeb.Modules.Proxy.pp
src/base/fphttpclientpool.pas=namespaced/FpWeb.Http.Client.Pool.pas
src/base/fphttpstatus.pas=namespaced/FpWeb.Http.Status.pas
src/base/fphtml.pp=namespaced/FpWeb.Html.pp
src/base/fphttpclient.pp=namespaced/FpWeb.Http.Client.pp
src/base/cgiprotocol.pp=namespaced/FpWeb.Cgi.Protocol.pp
src/base/custweb.pp=namespaced/FpWeb.Handler.pp
src/base/httpjson.pp=namespaced/FpWeb.Http.Json.pp
src/base/fphttpapp.pp=namespaced/FpWeb.HostApp.HttpApp.pp
src/base/restcodegen.pp=namespaced/FpWeb.Rest.Codegen.pp
src/base/fphttpwebclient.pp=namespaced/FpWeb.Client.Http.pp
src/base/fpapache.pp=namespaced/FpWeb.HostApp.Apache.pp
src/base/restbase.pp=namespaced/FpWeb.Rest.Base.pp
src/base/httpdefs.pp=namespaced/FpWeb.Http.Defs.pp
src/base/fphttpclientasyncpool.pas=namespaced/FpWeb.Http.Client.ASyncPool.pas
src/base/tcwebmodule.pp=namespaced/FpWeb.Tests.Tcwebmodule.pp
src/base/fpapache24.pp=namespaced/FpWeb.HostApp.Apache24.pp
src/base/httproute.pp=namespaced/FpWeb.Route.pp
src/base/cgiapp.pp=namespaced/FpWeb.HostApp.SimpleCgi.pp
src/base/fpwebfile.pp=namespaced/FpWeb.Modules.Files.pp
src/base/fpfcgi.pp=namespaced/FpWeb.HostApp.Fcgi.pp
src/base/custhttpsys.pp=namespaced/FpWeb.HostApp.Custom.HttpSys.pp
src/base/fphttpserver.pp=namespaced/FpWeb.Http.Server.pp
src/base/custcgi.pp=namespaced/FpWeb.HostApp.Custom.Cgi.pp
src/base/websession.pp=namespaced/FpWeb.Session.pp
src/base/fphttp.pp=namespaced/FpWeb.Http.Base.pp
src/base/webpage.pp=namespaced/FpWeb.WebPage.pp
src/webdata/sqldbwebdata.pp=namespaced/FpWeb.Data.SqlDb.pp
{s*:src/webdata/}=namespaced/
{i+:src/webdata/}
src/webdata/extjsjson.pp=namespaced/FpWeb.Data.Extjs.Json.pp
src/webdata/fpextjs.pp=namespaced/FpWeb.Data.Extjs.Base.pp
src/webdata/extjsxml.pp=namespaced/FpWeb.Data.Extjs.Xml.pp
src/webdata/fpwebdata.pp=namespaced/FpWeb.Data.Base.pp
src/jsonrpc/webjsonrpc.pp=namespaced/FpWeb.JsonRpc.Web.pp
{s*:src/jsonrpc/}=namespaced/
{i+:src/jsonrpc/}
src/jsonrpc/fpextdirect.pp=namespaced/FpWeb.JsonRpc.ExtDirect.pp
src/jsonrpc/fprpcrtti.pp=namespaced/FpWeb.JsonRpc.Rtti.pp
src/jsonrpc/fpdispextdirect.pp=namespaced/FpWeb.JsonRpc.DispExtDirect.pp
src/jsonrpc/fprpcstrings.pp=namespaced/FpWeb.JsonRpc.Strings.pp
src/jsonrpc/fpjsonrpc.pp=namespaced/FpWeb.JsonRpc.Base.pp
src/jsonrpc/fprpccodegen.pp=namespaced/FpWeb.JsonRpc.Codegen.pp
src/jsonrpc/fprpcclient.pp=namespaced/FpWeb.JsonRpc.Client.pp
src/restbridge/sqldbrestbridge.pp=namespaced/FpWeb.RestBridge.Bridge.pp
{s*:src/restbridge/}=namespaced/
{i+:src/restbridge/}
src/restbridge/sqldbrestjson.pp=namespaced/FpWeb.RestBridge.Json.pp
src/restbridge/sqldbrestconst.pp=namespaced/FpWeb.RestBridge.Consts.pp
src/restbridge/sqldbrestauth.pp=namespaced/FpWeb.RestBridge.Auth.pp
src/restbridge/sqldbrestxml.pp=namespaced/FpWeb.RestBridge.Xml.pp
src/restbridge/sqldbrestschema.pp=namespaced/FpWeb.RestBridge.Schema.pp
src/restbridge/sqldbrestcds.pp=namespaced/FpWeb.RestBridge.Cds.pp
src/restbridge/sqldbrestmodule.pp=namespaced/FpWeb.RestBridge.Module.pp
src/restbridge/sqldbrestdata.pp=namespaced/FpWeb.RestBridge.Data.pp
src/restbridge/sqldbrestado.pp=namespaced/FpWeb.RestBridge.Ado.pp
src/restbridge/sqldbrestio.pp=namespaced/FpWeb.RestBridge.IO.pp
src/restbridge/sqldbrestini.pp=namespaced/FpWeb.RestBridge.Ini.pp
src/restbridge/sqldbrestauthini.pp=namespaced/FpWeb.RestBridge.Authini.pp
src/restbridge/sqldbrestcsv.pp=namespaced/FpWeb.RestBridge.Csv.pp
src/websocket/fpwebsocket.pp=namespaced/FpWeb.WebSocket.Protocol.pp
{s*:src/websocket/}=namespaced/
{i+:src/websocket/}
src/websocket/fpwebsocketserver.pp=namespaced/FpWeb.WebSocket.Server.pp
src/websocket/fpcustwsserver.pp=namespaced/FpWeb.WebSocket.Custom.Server.pp
src/websocket/wsupgrader.pp=namespaced/FpWeb.WebSocket.Upgrader.pp
src/websocket/fpwebsocketclient.pp=namespaced/FpWeb.WebSocket.Client.pp
src/jwt/fpoauth2ini.pp=namespaced/Jwt.Oauth2.Ini.pp
{s*:src/jwt/}=namespaced/
{i+:src/jwt/}
src/jwt/fpjwarsa.pp=namespaced/Jwt.Jwa.Rsa.pp
src/jwt/fpjwasha512.pp=namespaced/Jwt.Jwa.Sha512.pp
src/jwt/fpjwasha384.pp=namespaced/Jwt.Jwa.Sha384.pp
src/jwt/fpjwaes256.pp=namespaced/Jwt.Jwa.Es256.pp
src/jwt/fpjwasha256.pp=namespaced/Jwt.Jwa.Sha256.pp
src/jwt/fpjwt.pp=namespaced/Jwt.Types.pp
src/jwt/fpoauth2.pp=namespaced/Jwt.Oauth2.pp
